…
## Example

With `read_mits()`, we can download the Wages Growth and Unemployment
Expectations tables from the Melbourne Institute collection. **Note that
only these two tables are currently supported. Contributions to this
package are welcome.**

``` r
library(readmits)

mits_data <- read_mits()

mits_data
#> # A tibble: 13,559 × 4
#>    date       series                          value table                    
#>    <date>     <chr>                           <dbl> <chr>                    
#>  1 1996-01-01 Unemployment Expectations Index 112.  Unemployment expectations
#>  2 1996-01-01 Age 18-24                        98.1 Unemployment expectations
#>  3 1996-01-01 Age 25-44                       113.  Unemployment expectations
#>  4 1996-01-01 Age over 45                     115.  Unemployment expectations
#>  5 1996-01-01 Tenant                          112.  Unemployment expectations
#>  6 1996-01-01 Mortgagee                       109.  Unemployment expectations
#>  7 1996-01-01 Owned                           113.  Unemployment expectations
#>  8 1996-01-01 Managers/Professionals          110.  Unemployment expectations
#>  9 1996-01-01 Technicians/Service workers     109.  Unemployment expectations
#> 10 1996-01-01 Administrative/Sales workers    110.  Unemployment expectations
#> # … with 13,549 more rows
```
…
